Tidy modeling - part 2
…
The last step is to bake!

test_ex <- bake(simple_ames, new_data = ames_test)
names(test_ex) %>% head()

## [1] "Gr_Liv_Area"                "Year_Built"                
## [3] "Sale_Price"                 "Neighborhood_College_Creek"
## [5] "Neighborhood_Old_Town"      "Neighborhood_Edwards"

We can always choose which variables to return if the dataset is very large.

bake(simple_ames, ames_test, starts_with("Neighborhood_"))

## # A tibble: 588 x 28
##    Neighborhood_College Neighborhood_Old_ Neighborhood_Edw Neighborhood_Some
##                    <dbl>              <dbl>             <dbl>              <dbl>
##  1                     0                  0                 0                  0
##  2                     0                  0                 0                  0
##  3                     0                  0                 0                  0
##  4                     0                  0                 0                  0
##  5                     0                  0                 0                  0
##  6                     0                  0                 0                  0
##  7                     0                  0                 0                  0
##  8                     0                  0                 0                  0
##  9                     0                  0                 0                  0
## 10                     0                  0                 0                  1
## #  with 578 more rows, and 24 more variables:
## #   Neighborhood_Northridge_Heights <dbl>, Neighborhood_Gilbert <dbl>,
## #   Neighborhood_Sawyer <dbl>, Neighborhood_Northwest_Ames <dbl>,
## #   Neighborhood_Sawyer_West <dbl>, Neighborhood_Mitchell <dbl>,
## #   Neighborhood_Brookside <dbl>, Neighborhood_Crawford <dbl>,
## #   Neighborhood_Iowa_DOT_and_Rail_Road <dbl>, Neighborhood_Timberland <dbl>,
## #   Neighborhood_Northridge <dbl>, Neighborhood_Stone_Brook <dbl>,
## #   Neighborhood_South_and_West_of_Iowa_State_University <dbl>,
## #   Neighborhood_Clear_Creek <dbl>, Neighborhood_Meadow_Village <dbl>,
…
The broom package helps clean up the various outputs from different modeling functions into one consist tibble output.

glance(lm_fit)

## # A tibble: 1 x 12
##   r.squared adj.r.squared  sigma statistic p.value    df logLik    AIC    BIC
##       <dbl>         <dbl>  <dbl>     <dbl>   <dbl> <dbl>  <dbl>  <dbl>  <dbl>
## 1     0.830         0.825 0.0745      156.       0    71  2795. -5445. -5025.
## #  with 3 more variables: deviance <dbl>, df.residual <int>, nobs <int>

# return the model coefficients nicely formatted
tidy(lm_fit)

## # A tibble: 72 x 5
##    term                            estimate std.error statistic   p.value
##    <chr>                              <dbl>     <dbl>     <dbl>     <dbl>
##  1 (Intercept)                     -0.231    0.281       -0.820 4.12e-  1
##  2 Gr_Liv_Area                      0.644    0.0149      43.4   1.02e-299
##  3 Year_Built                       0.00178  0.000131    13.6   1.17e- 40
##  4 Neighborhood_College_Creek      -0.0101   0.0332      -0.305 7.60e-  1
##  5 Neighborhood_Old_Town           -0.0496   0.0122      -4.07  4.77e-  5
##  6 Neighborhood_Edwards            -0.0930   0.0269      -3.46  5.48e-  4
##  7 Neighborhood_Somerset            0.0708   0.0181       3.92  9.28e-  5
##  8 Neighborhood_Northridge_Heights  0.133    0.0273       4.89  1.10e-  6
##  9 Neighborhood_Gilbert             0.0315   0.0210       1.50  1.35e-  1
## 10 Neighborhood_Sawyer             -0.114    0.0256      -4.45  8.92e-  6
## #  with 62 more rows
…
## # A tibble: 3 x 5
##   term        estimate std.error statistic  p.value
##   <chr>          <dbl>     <dbl>     <dbl>    <dbl>
## 1 (Intercept)  -310.      14.7       -21.1 8.23e-91
## 2 Longitude      -2.06     0.131     -15.8 2.82e-53
## 3 Latitude        2.91     0.182      16.0 1.59e-54

predict

Calling predict() on a parsnip object gives different results than when calling it on a base-R model.

predict(lm_form_fit, new_data = ames_test)

## # A tibble: 588 x 1
##    .pred
##    <dbl>
##  1  5.28
##  2  5.26
##  3  5.24
##  4  5.23
##  5  5.32
##  6  5.30
##  7  5.29
##  8  5.29
##  9  5.29
## 10  5.29
## #  with 578 more rows

result is always a tibble

no.of rows is always the same as no.of rows in the input

column names are predictable

Using the type argument of predict(), we can change the columns of the output:

predict(lm_form_fit, new_data = ames_test, type = "conf_int")

## # A tibble: 588 x 2
##    .pred_lower .pred_upper
##          <dbl>       <dbl>
##  1        5.27        5.30
##  2        5.25        5.28
##  3        5.23        5.25
##  4        5.22        5.24
##  5        5.31        5.33
##  6        5.29        5.31
##  7        5.28        5.31
##  8        5.28        5.30
##  9        5.28        5.30
## 10        5.28        5.29
## #  with 578 more rows
…
